#OPPO R000 AK09911 2017-08-03 Average
HPRMS0 = 133
HPRMS1 = 81
HPRMS2 = 105
HPRMS3 = 13
HPRMS4 = 91
HPRMS5 = 85
HPRMS6 = 255
HPRMS7 = 130
HPRMS8 = 215
HPRMS9 = 55
HPRMS10 = 239
HPRMS11 = 192
HPRMS12 = 20
HPRMS13 = 28
HPRMS14 = 0
HPRMS15 = 232
HPRMS16 = 255
HPRMS17 = 50
HPRMS18 = 153
HPRMS19 = 246
HPRMS20 = 190
HPRMS21 = 250
HPRMS22 = 166
HPRMS23 = 209
HPRMS24 = 11
HPRMS25 = 77
HPRMS26 = 179
